{
  "version": "0.2.0",
  "pageConfigurations": [
    {
      "name": "Hello",
      "id": "Hello",
      "alias": "Home Page",
      "params": [],
      "path": "/Hello"
    }
  ],
  "configurations": [
    {
      "name": "Debug QuickApp on Device",
      "type": "quickapp",
      "request": "launch",
      "device": "${command:quickapp.choose-device}",
      "cwd": "${workspaceRoot}",
      "logLevel": "log",
      "adbPort": 5037,
      "debugServerPort": 8088,
      "remoteDebug": true,
      "elementMode": false,
      "devicePlatform": "phone"
    },
    {
      "name": "Debug Widget Hello on Device",
      "type": "quickapp",
      "request": "launch",
      "device": "${command:quickapp.choose-device}",
      "cwd": "${workspaceRoot}",
      "logLevel": "log",
      "adbPort": 5037,
      "debugServerPort": 8088,
      "remoteDebug": true,
      "elementMode": false,
      "widgetUri": "Hello",
      "isRun": false,
      "autoRun": false,
      "alias": "Home Page",
      "widgetParams": "{}",
      "devicePlatform": "phone"
    }
  ],
  "currentWidgetUri": "Hello",
  "currentAlias": "Home Page",
  "lastWidgetUri": "Hello",
  "lastAlias": "Home Page"
}